{
    "resultCount":2,
    "results":[
        {
            "wrapperType":"track",
            "kind":"tv-episode",
            "artistId":709403290,
            "collectionId":715629713,
            "trackId":759756080,
            "artistName":"artist name show 1",
            "collectionName":"The Making of Classic Albums, U2: The Joshua Tree",
            "trackName":"track name show 1",
            "collectionCensoredName":"The Making of Classic Albums, U2: The Joshua Tree",
            "trackCensoredName":"U2: The Joshua Tree (The Making of Classic Albums)",
            "artistViewUrl":"https://itunes.apple.com/us/tv-show/the-making-of-classic-albums/id709403290?uo=4",
            "collectionViewUrl":"https://itunes.apple.com/us/tv-season/u2-the-joshua-tree-the-making-of-classic-albums/id715629713?i=759756080&uo=4",
            "trackViewUrl":"https://itunes.apple.com/us/tv-season/u2-the-joshua-tree-the-making-of-classic-albums/id715629713?i=759756080&uo=4",
            "previewUrl":"preview url show 1",
            "artworkUrl30":"https://is3-ssl.mzstatic.com/image/thumb/Music127/v4/3c/f0/fc/3cf0fc92-ff12-bf8a-fdc4-01d2898d4b84/source/30x30bb.jpg",
            "artworkUrl60":"https://is3-ssl.mzstatic.com/image/thumb/Music127/v4/3c/f0/fc/3cf0fc92-ff12-bf8a-fdc4-01d2898d4b84/source/60x60bb.jpg",
            "artworkUrl100":"artworkUrl100 show 1",
            "collectionPrice":1.99,
            "trackPrice":-1.00,
            "releaseDate":"2003-04-28T07:00:00Z",
            "collectionExplicitness":"notExplicit",
            "trackExplicitness":"notExplicit",
            "discCount":1,
            "discNumber":1,
            "trackCount":1,
            "trackNumber":1,
            "trackTimeMillis":3073080,
            "country":"USA",
            "currency":"USD",
            "primaryGenreName":"Nonfiction",
            "shortDescription":"This episode of the CLASSIC ALBUMS series details the making of U2's chart-topping album through",
            "longDescription":"long description show 1"
        },
        {
            "wrapperType":"track",
            "kind":"tv-episode",
            "artistId":466022968,
            "collectionId":770940913,
            "trackId":778681499,
            "artistName":"artist name show 2",
            "collectionName":"Mysteries At the Museum, Season 3",
            "trackName":"track name show 2",
            "collectionCensoredName":"Mysteries At the Museum, Season 3",
            "trackCensoredName":"Leopold and Loeb, U2 Spy Plane",
            "artistViewUrl":"https://itunes.apple.com/us/tv-show/mysteries-at-the-museum/id466022968?uo=4",
            "collectionViewUrl":"https://itunes.apple.com/us/tv-season/leopold-and-loeb-u2-spy-plane/id770940913?i=778681499&uo=4",
            "trackViewUrl":"https://itunes.apple.com/us/tv-season/leopold-and-loeb-u2-spy-plane/id770940913?i=778681499&uo=4",
            "previewUrl":"preview url show 2",
            "artworkUrl30":"https://is5-ssl.mzstatic.com/image/thumb/Music49/v4/97/62/ea/9762eab3-c46f-5c2b-cc74-31d544e1ef52/source/30x30bb.jpg",
            "artworkUrl60":"https://is5-ssl.mzstatic.com/image/thumb/Music49/v4/97/62/ea/9762eab3-c46f-5c2b-cc74-31d544e1ef52/source/60x60bb.jpg",
            "artworkUrl100":"artworkUrl100 show 2",
            "collectionPrice":6.99,
            "trackPrice":1.99,
            "collectionHdPrice":9.99000,
            "trackHdPrice":2.99000,
            "releaseDate":"2012-12-13T08:00:00Z",
            "collectionExplicitness":"notExplicit",
            "trackExplicitness":"notExplicit",
            "discCount":1,
            "discNumber":1,
            "trackCount":13,
            "trackNumber":5,
            "trackTimeMillis":2561228,
            "country":"USA",
            "currency":"USD",
            "primaryGenreName":"Nonfiction",
            "contentAdvisoryRating":"TV-PG",
            "shortDescription":"Don Wildman examines a revolutionary plow that sows the seeds of a terrifying disaster, a primitive",
            "longDescription":"long description show 2"
        }
    ]
}
